{
  "databaseSettings": {
    "host": "localhost",
    "user": "root",
    "password": "",
    "database": "Mydb"
  },
  "EmailCredentials": {
    "email": "",
    "password": ""
  },
  "PORT":3006,
  "s3BucketCredentials": {
    "bucket": "",
    "accessKeyId": "",
    "secretAccessKey": "",
    "s3URL": ""
  }
}
